\select@language {french}
\select@language {french}
\select@language {french}
\select@language {french}
\select@language {french}
\select@language {french}
\contentsline {section}{Bibliography}{6}{section*.2}
